<?xml version="1.0" encoding="UTF-8" standalone="no"?>
<!-- Created with Inkscape (http://www.inkscape.org/) -->

<svg
   xmlns:dc="http://purl.org/dc/elements/1.1/"
   xmlns:cc="http://creativecommons.org/ns#"
   xmlns:rdf="http://www.w3.org/1999/02/22-rdf-syntax-ns#"
   xmlns:svg="http://www.w3.org/2000/svg"
   xmlns="http://www.w3.org/2000/svg"
   xmlns:sodipodi="http://sodipodi.sourceforge.net/DTD/sodipodi-0.dtd"
   xmlns:inkscape="http://www.inkscape.org/namespaces/inkscape"
   width="128"
   height="128"
   viewBox="0 0 33.866666 33.866666"
   version="1.1"
   id="svg8"
   inkscape:version="0.92.3 (2405546, 2018-03-11)"
   sodipodi:docname="checkbox-unchecked.svg"
   inkscape:export-filename="/home/sergv/workspace/free/common/resources/gadget/light/disabled/checkbox-unchecked.png"
   inkscape:export-xdpi="36"
   inkscape:export-ydpi="36">
  <defs
     id="defs2" />
  <sodipodi:namedview
     id="base"
     pagecolor="#ffffff"
     bordercolor="#666666"
     borderopacity="1.0"
     inkscape:pageopacity="0.0"
     inkscape:pageshadow="2"
     inkscape:zoom="3.959798"
     inkscape:cx="16.832561"
     inkscape:cy="72.796316"
     inkscape:document-units="mm"
     inkscape:current-layer="layer1"
     showgrid="false"
     units="px"
     inkscape:window-width="1920"
     inkscape:window-height="1023"
     inkscape:window-x="0"
     inkscape:window-y="33"
     inkscape:window-maximized="1" />
  <metadata
     id="metadata5">
    <rdf:RDF>
      <cc:Work
         rdf:about="">
        <dc:format>image/svg+xml</dc:format>
        <dc:type
           rdf:resource="http://purl.org/dc/dcmitype/StillImage" />
        <dc:title></dc:title>
      </cc:Work>
    </rdf:RDF>
  </metadata>
  <g
     inkscape:label="Layer 1"
     inkscape:groupmode="layer"
     id="layer1"
     transform="translate(0,-263.13334)">
    <path
       style="fill:{color};fill-opacity:1;stroke:none;stroke-width:0.26505458;stroke-miterlimit:4;stroke-dasharray:none;stroke-opacity:1"
       d="M 5.8584936,263.13334 C 2.6128712,263.13334 0,265.74622 0,268.99184 v 22.14968 c 0,3.24562 2.6128712,5.85849 5.8584936,5.85849 H 28.008171 c 3.245624,0 5.858496,-2.61287 5.858496,-5.85849 v -22.14968 c 0,-3.24562 -2.612872,-5.8585 -5.858496,-5.8585 z m 2.4227675,3.70394 H 25.585405 c 2.535642,0 4.577322,2.04168 4.577322,4.57733 v 17.30414 c 0,2.53564 -2.04168,4.57679 -4.577322,4.57679 H 8.2812611 c -2.5356423,0 -4.5773223,-2.04115 -4.5773223,-4.57679 v -17.30414 c 0,-2.53565 2.04168,-4.57733 4.5773223,-4.57733 z"
       id="rect815"
       inkscape:connector-curvature="0" />
  </g>
</svg>
