<?xml version="1.0" encoding="iso-8859-1"?>
<!-- Generator: Adobe Illustrator 16.0.0, SVG Export Plug-In . SVG Version: 6.00 Build 0)  -->
<!DOCTYPE svg PUBLIC "-//W3C//DTD SVG 1.1//EN" "http://www.w3.org/Graphics/SVG/1.1/DTD/svg11.dtd">
<svg version="1.1" id="Capa_1" xmlns="http://www.w3.org/2000/svg" xmlns:xlink="http://www.w3.org/1999/xlink" x="0px" y="0px"
	 width="569.16px" height="569.16px" viewBox="0 0 569.16 569.16" style="enable-background:new 0 0 569.16 569.16;"
	 xml:space="preserve">
<g>
	<g>
		<path d="M471.108,96.392H36.27c-20,0-36.27,16.227-36.27,36.172v304.033c0,19.945,16.27,36.172,36.27,36.172h434.838
			c20,0,36.273-16.227,36.273-36.172V132.564C507.382,112.619,491.108,96.392,471.108,96.392z M70.601,287.642
			c0-21.126,17.126-38.25,38.25-38.25h57.05h9.18h9.18v-38.183c0-15.973,12.947-28.92,28.92-28.92h98.14
			c3.382,0,6.12,2.739,6.12,6.12v29.027v6.5v30.937v6.5v52.534v6.5v30.936v6.5v29.027c0,3.381-2.738,6.121-6.12,6.121h-98.14
			c-15.973,0-28.92-12.947-28.92-28.922v-38.18h-9.18h-9.18h-57.05C87.727,325.892,70.601,308.765,70.601,287.642z M398.528,358.827
			h-62.729v-6.121v-33.66v-6.119h62.729c12.678,0,22.95,10.275,22.95,22.949C421.479,348.552,411.206,358.827,398.528,358.827z
			 M398.528,262.354h-62.729v-6.12v-33.66v-6.12h62.729c12.678,0,22.95,10.276,22.95,22.95
			C421.479,252.079,411.206,262.354,398.528,262.354z"/>
		<path d="M532.89,174.893c0,0-1.609,0-3.592,0c-1.983,0-3.593,2.727-3.593,6.086v207.199c0,3.361,1.606,6.086,3.593,6.086h3.592
			c20,0,36.271-16.227,36.271-36.172V211.065C569.16,191.12,552.89,174.893,532.89,174.893z"/>
	</g>
</g>
<g>
</g>
<g>
</g>
<g>
</g>
<g>
</g>
<g>
</g>
<g>
</g>
<g>
</g>
<g>
</g>
<g>
</g>
<g>
</g>
<g>
</g>
<g>
</g>
<g>
</g>
<g>
</g>
<g>
</g>
</svg>
